module parser

go 1.14

require (
	github.com/PuerkitoBio/goquery v1.6.0 // indirect
	github.com/andybalholm/cascadia v1.2.0 // indirect
	github.com/antchfx/htmlquery v1.2.3 // indirect
	github.com/antchfx/xmlquery v1.3.3 // indirect
	github.com/go-sql-driver/mysql v1.5.0
	github.com/gobwas/glob v0.2.3 // indirect
	github.com/gocolly/colly v1.2.0
	github.com/golang/protobuf v1.4.3 // indirect
	github.com/jawher/mow.cli v1.2.0 // indirect
	github.com/kennygrant/sanitize v1.2.4 // indirect
	github.com/saintfish/chardet v0.0.0-20120816061221-3af4cd4741ca // indirect
	github.com/temoto/robotstxt v1.1.1 // indirect
	golang.org/x/net v0.0.0-20201031054903-ff519b6c9102 // indirect
	golang.org/x/text v0.3.4 // indirect
	google.golang.org/appengine v1.6.7 // indirect
	google.golang.org/protobuf v1.25.0 // indirect
)
